{
    "model_path" : "model_data/yolov3/",                                                                 
    "class_name_path" : "model_data/class_file.name",                                                  
    "strides" :  "32,16,8",                                                                            
    "anchors" : "10,13 16,30 33,23 30,61 62,45 59,119 116,90 156,198 373,326",                        
    "mask" : "6,7,8 3,4,5 0,1,2",                                                                      
    "score_threshold" : "0.4"
}
